<?xml version="1.0" encoding="UTF-8" standalone="no"?>
<svg width="198px" height="40px" viewBox="0 0 198 40" version="1.1" xmlns="http://www.w3.org/2000/svg" xmlns:xlink="http://www.w3.org/1999/xlink" xmlns:sketch="http://www.bohemiancoding.com/sketch/ns">
    <!-- Generator: Sketch 3.5.1 (25234) - http://www.bohemiancoding.com/sketch -->
    <title>Page 1</title>
    <desc>Created with Sketch.</desc>
    <defs>
        <path id="path-1" d="M9.7335,0.159906977 C4.40502632,0.159906977 0.0851052632,4.52260465 0.0851052632,9.90474419 L0.0851052632,9.90474419 L0.0851052632,26.6874419 C0.0851052632,32.0695814 4.40502632,36.4322791 9.7335,36.4322791 L9.7335,36.4322791 L26.3511316,36.4322791 C31.6796053,36.4322791 35.9995263,32.0695814 35.9995263,26.6874419 L35.9995263,26.6874419 L35.9995263,9.90474419 C35.9995263,4.52260465 31.6796053,0.159906977 26.3511316,0.159906977 L26.3511316,0.159906977"></path>
        <path id="path-3" d="M9.7335,0.159906977 C4.40502632,0.159906977 0.0851052632,4.52260465 0.0851052632,9.90474419 L0.0851052632,9.90474419 L0.0851052632,26.6874419 C0.0851052632,32.0695814 4.40502632,36.4322791 9.7335,36.4322791 L9.7335,36.4322791 L26.3511316,36.4322791 C31.6796053,36.4322791 35.9995263,32.0695814 35.9995263,26.6874419 L35.9995263,26.6874419 L35.9995263,9.90474419 C35.9995263,4.52260465 31.6796053,0.159906977 26.3511316,0.159906977 L26.3511316,0.159906977"></path>
        <path id="path-5" d="M9.7335,0.159906977 C4.40502632,0.159906977 0.0851052632,4.52260465 0.0851052632,9.90474419 L0.0851052632,9.90474419 L0.0851052632,26.6874419 C0.0851052632,32.0695814 4.40502632,36.4322791 9.7335,36.4322791 L9.7335,36.4322791 L26.3511316,36.4322791 C31.6796053,36.4322791 35.9995263,32.0695814 35.9995263,26.6874419 L35.9995263,26.6874419 L35.9995263,9.90474419 C35.9995263,4.52260465 31.6796053,0.159906977 26.3511316,0.159906977 L26.3511316,0.159906977"></path>
    </defs>
    <g id="Page-1" stroke="none" stroke-width="1" fill="none" fill-rule="evenodd" sketch:type="MSPage">
        <g id="Spoken" sketch:type="MSArtboardGroup" transform="translate(-115.000000, -30.000000)">
            <g id="Page-1" sketch:type="MSLayerGroup" transform="translate(115.000000, 30.000000)">
                <g id="Spoken-Bubble">
                    <g id="Group-5" transform="translate(0.184211, 0.000000)" fill="#00AA6C" sketch:type="MSShapeGroup">
                        <path d="M3.91370921,39.7077488 C3.31051184,39.784214 2.96649868,39.036307 3.407775,38.6137953 C3.41744605,38.604307 3.42739342,38.5948186 3.43734079,38.5853302 C3.84849868,38.1896093 4.30055132,37.7090512 4.72469605,37.1729581 C5.14911711,36.6371442 5.54286711,36.0444 5.843775,35.4477488 C6.14495921,34.8508186 6.35136711,34.2541674 6.44338026,33.7261674 C6.53843289,33.1967721 6.52655132,32.7427256 6.46880132,32.3894233 C6.40939342,32.0344465 6.31434079,31.7760279 6.23863026,31.6007721 C6.19939342,31.5128651 6.16899868,31.4472837 6.14468289,31.4017953 C6.12230132,31.3577023 6.11041974,31.3339814 6.11041974,31.3339814 L13.8610776,32.268586 C13.8610776,32.268586 13.8362092,32.3380744 13.7900645,32.4684 C13.745025,32.5981674 13.6723539,32.7876558 13.5748145,33.0234698 C13.3783539,33.4942605 13.0583803,34.152307 12.5886434,34.8474698 C12.1200118,35.5429116 11.4952618,36.2612372 10.7729724,36.8757488 C10.0520645,37.4947256 9.23914342,38.0073767 8.42401184,38.4053302 C6.78684079,39.2029116 5.15105132,39.5470047 3.94963026,39.7032837 C3.93774868,39.7046791 3.92559079,39.7063535 3.91370921,39.7077488" id="Fill-1"></path>
                        <path d="M26.3510211,36.432307 L9.73366579,36.432307 C4.40491579,36.432307 0.0852710526,32.0696093 0.0852710526,26.6877488 L0.0852710526,9.90477209 C0.0852710526,4.52291163 4.40491579,0.159934884 9.73366579,0.159934884 L26.3510211,0.159934884 C31.6797711,0.159934884 35.9994158,4.52291163 35.9994158,9.90477209 L35.9994158,26.6877488 C35.9994158,32.0696093 31.6797711,36.432307 26.3510211,36.432307" id="Fill-3"></path>
                    </g>
                    <g id="Group-15" transform="translate(0.184211, 0.000000)">
                        <g id="Group-8">
                            <mask id="mask-2" sketch:name="Clip 7" fill="white">
                                <use xlink:href="#path-1"></use>
                            </mask>
                            <g id="Clip-7"></g>
                            <path d="M26.3510211,24.346214 L9.73366579,24.346214 C4.40491579,24.346214 0.0852710526,19.9835163 0.0852710526,14.6016558 L0.0852710526,-2.18132093 C0.0852710526,-7.5631814 4.40491579,-11.9261581 9.73366579,-11.9261581 L26.3510211,-11.9261581 C31.6797711,-11.9261581 35.9994158,-7.5631814 35.9994158,-2.18132093 L35.9994158,14.6016558 C35.9994158,19.9835163 31.6797711,24.346214 26.3510211,24.346214" id="Fill-6" fill="#13C667" sketch:type="MSShapeGroup" mask="url(#mask-2)"></path>
                        </g>
                        <g id="Group-11">
                            <mask id="mask-4" sketch:name="Clip 10" fill="white">
                                <use xlink:href="#path-3"></use>
                            </mask>
                            <g id="Clip-10"></g>
                            <path d="M14.3842816,24.346214 L-2.23307368,24.346214 C-7.56182368,24.346214 -11.8814684,19.9835163 -11.8814684,14.6016558 L-11.8814684,-2.18132093 C-11.8814684,-7.5631814 -7.56182368,-11.9261581 -2.23307368,-11.9261581 L14.3842816,-11.9261581 C19.7130316,-11.9261581 24.0326763,-7.5631814 24.0326763,-2.18132093 L24.0326763,14.6016558 C24.0326763,19.9835163 19.7130316,24.346214 14.3842816,24.346214" id="Fill-9" fill="#0BE270" sketch:type="MSShapeGroup" mask="url(#mask-4)"></path>
                        </g>
                        <g id="Group-14">
                            <mask id="mask-6" sketch:name="Clip 13" fill="white">
                                <use xlink:href="#path-5"></use>
                            </mask>
                            <g id="Clip-13"></g>
                            <path d="M14.3842816,12.2602884 L-2.23307368,12.2602884 C-7.56182368,12.2602884 -11.8814684,7.8975907 -11.8814684,2.51573023 L-11.8814684,-14.2672465 C-11.8814684,-19.649107 -7.56182368,-24.0120837 -2.23307368,-24.0120837 L14.3842816,-24.0120837 C19.7130316,-24.0120837 24.0326763,-19.649107 24.0326763,-14.2672465 L24.0326763,2.51573023 C24.0326763,7.8975907 19.7130316,12.2602884 14.3842816,12.2602884" id="Fill-12" fill="#32FB8D" sketch:type="MSShapeGroup" mask="url(#mask-6)"></path>
                        </g>
                    </g>
                </g>
                <g id="Spoken" transform="translate(48.235294, 3.529412)" fill="#13C667" sketch:type="MSShapeGroup">
                    <path d="M0.258295626,24.5564103 L2.0938914,21.3143288 C2.4061086,20.8067873 3.14819005,20.8852187 3.4219457,21.080543 C3.5780543,21.1582202 6.39027149,23.228356 8.96794872,23.228356 C10.530543,23.228356 11.663273,22.2517345 11.663273,20.8852187 C11.663273,19.2441931 10.296003,17.9945701 7.64064857,16.9402715 C4.28092006,15.6122172 0.0629713424,12.9953243 0.0629713424,8.30829563 C0.0629713424,4.44102564 3.07051282,0.535294118 9.08559578,0.535294118 C13.1474359,0.535294118 16.2718703,2.60542986 17.443816,3.46515837 C17.9121418,3.73815988 17.8344646,4.44102564 17.678356,4.7147813 L15.6858974,7.72232278 C15.4128959,8.15218703 14.7100302,8.50361991 14.3578431,8.22986425 C14.0071644,8.03453997 11.1557315,5.886727 8.77262443,5.886727 C7.36689291,5.886727 6.31259427,6.82413273 6.31259427,7.87843137 C6.31259427,9.32337858 7.48378582,10.4168929 10.5697587,11.66727 C13.6165158,12.8776772 18.4596531,15.2607843 18.4596531,20.5722474 C18.4596531,24.5956259 14.9830317,28.6574661 9.24170437,28.6574661 C4.16402715,28.6574661 1.35180995,26.5481146 0.45361991,25.6499246 C0.0629713424,25.259276 -0.0539215686,25.1031674 0.258295626,24.5564103" id="Fill-16"></path>
                    <path d="M33.0294872,12.6435143 C34.7089744,12.6435143 36.11546,11.31546 36.11546,9.55829563 C36.11546,7.91726998 34.7089744,6.66764706 33.0294872,6.66764706 L29.3190799,6.66764706 L29.3190799,12.6435143 L33.0294872,12.6435143 Z M23.2255656,1.66840121 C23.2255656,1.27775264 23.538537,0.926319759 23.9684012,0.926319759 L33.3809201,0.926319759 C38.1855958,0.926319759 42.1297888,4.83205128 42.1297888,9.55829563 C42.1297888,14.4014329 38.1855958,18.3463801 33.4201357,18.3463801 L29.3190799,18.3463801 L29.3190799,27.5251131 C29.3190799,27.9150075 28.9676471,28.2671946 28.5769985,28.2671946 L23.9684012,28.2671946 C23.538537,28.2671946 23.2255656,27.9150075 23.2255656,27.5251131 L23.2255656,1.66840121 Z" id="Fill-18"></path>
                    <path d="M58.2630468,22.4082956 C62.5594268,22.4082956 66.0745098,18.8932127 66.0745098,14.6352941 C66.0745098,10.338914 62.5594268,6.78461538 58.2630468,6.78461538 C54.0058824,6.78461538 50.4900452,10.338914 50.4900452,14.6352941 C50.4900452,18.8932127 54.0058824,22.4082956 58.2630468,22.4082956 M58.2630468,0.535746606 C66.0745098,0.535746606 72.3241327,6.82383107 72.3241327,14.6352941 C72.3241327,22.4475113 66.0745098,28.6579186 58.2630468,28.6579186 C50.4515837,28.6579186 44.2411765,22.4475113 44.2411765,14.6352941 C44.2411765,6.82383107 50.4515837,0.535746606 58.2630468,0.535746606" id="Fill-20"></path>
                    <path d="M77.052187,1.86349925 C77.052187,1.35595777 77.4428356,0.926093514 77.9895928,0.926093514 L82.5597285,0.926093514 C83.06727,0.926093514 83.4971342,1.35595777 83.4971342,1.86349925 L83.4971342,12.1357466 L92.1675716,1.31674208 C92.3236802,1.1214178 92.6758673,0.926093514 92.9104072,0.926093514 L97.8312217,0.926093514 C98.5733032,0.926093514 98.9639517,1.78506787 98.5340875,2.37104072 L89.3945701,13.8152338 L99.3546003,26.7828054 C99.7844646,27.3687783 99.3546003,28.2277526 98.6125189,28.2277526 L93.2226244,28.2277526 C92.9488688,28.2277526 92.5974359,28.071644 92.5190045,27.9547511 L83.4971342,15.6900452 L83.4971342,27.3295626 C83.4971342,27.8371041 83.06727,28.2669683 82.5597285,28.2669683 L77.9895928,28.2669683 C77.4428356,28.2669683 77.052187,27.8371041 77.052187,27.3295626 L77.052187,1.86349925 Z" id="Fill-23"></path>
                    <path d="M103.340347,1.66817496 C103.340347,1.2775264 103.652564,0.926093514 104.082428,0.926093514 L120.252866,0.926093514 C120.681976,0.926093514 120.994947,1.2775264 120.994947,1.66817496 L120.994947,5.92533937 C120.994947,6.31598793 120.681976,6.66742081 120.252866,6.66742081 L109.433107,6.66742081 L109.433107,11.5105581 L118.338839,11.5105581 C118.729487,11.5105581 119.08092,11.8627451 119.08092,12.2533937 L119.08092,16.5105581 C119.08092,16.9396682 118.729487,17.2526395 118.338839,17.2526395 L109.433107,17.2526395 L109.433107,22.525641 L120.252866,22.525641 C120.681976,22.525641 120.994947,22.8770739 120.994947,23.2677225 L120.994947,27.5248869 C120.994947,27.9155354 120.681976,28.2669683 120.252866,28.2669683 L104.082428,28.2669683 C103.652564,28.2669683 103.340347,27.9155354 103.340347,27.5248869 L103.340347,1.66817496 Z" id="Fill-25"></path>
                    <path d="M126.191629,1.23868778 C126.191629,0.848039216 126.543062,0.535822021 126.93371,0.535822021 L127.910332,0.535822021 L143.494796,15.5335596 L143.533258,15.5335596 L143.533258,1.66855204 C143.533258,1.27790347 143.846229,0.926470588 144.276094,0.926470588 L148.962368,0.926470588 C149.353017,0.926470588 149.705204,1.27790347 149.705204,1.66855204 L149.705204,27.9543741 C149.705204,28.3450226 149.353017,28.657994 148.962368,28.657994 L148.337934,28.657994 C148.221041,28.657994 147.908069,28.5403469 147.830392,28.4626697 L132.402036,12.9558824 L132.362821,12.9558824 L132.362821,27.525264 C132.362821,27.9151584 132.050603,28.2673454 131.620739,28.2673454 L126.972926,28.2673454 C126.582278,28.2673454 126.230845,27.9151584 126.230845,27.525264 L126.191629,1.23868778 Z" id="Fill-27"></path>
                </g>
            </g>
        </g>
    </g>
</svg>